Proyecto AA
…
datos = canarias %>% select(c("SEXO", "PROPOSITO", "IMPORTANCIA_CLIMA", "IMPORTANCIA_PLAYAS", "IMPORTANCIA_PAISAJES", "IMPORTANCIA_ENTORNO_AMBIENTAL", "IMPORTANCIA_OFERTA_ALOJATIVA", "IMPORTANCIA_PATRIMONIO_HISTORICO", "IMPORTANCIA_OCIO_NOCTURNO", "IMPORTANCIA_OFERTA_CULTURAL", "IMPORTANCIA_GASTRONOMIA", "IMPORTANCIA_VIAJE_SENCILLO", "IMPORTANCIA_TRANQUILIDAD", "IMPORTANCIA_PRECIO", "VISITAS_TOTAL_CANARIAS", "SATISFACCION", "CALIFICAR_EXPERIENCIA", "VOLVER_A_CANARIAS", "RECOMENDAR_CANARIAS"))

datos

## # A tibble: 106,031 × 19
##    SEXO  PROPOSITO  IMPORTANCIA_CLIMA IMPORTANCIA_PLAYAS IMPORTANCIA_PAISAJES
##    <chr> <chr>      <chr>             <chr>              <chr>               
##  1 F     VACACIONES MUCHO             MUCHO              MUCHO               
##  2 M     VACACIONES MUCHO             MUCHO              MUCHO               
##  3 F     VACACIONES MUCHO             MUCHO              MUCHO               
##  4 F     VACACIONES BASTANTE          NADA               BASTANTE            
##  5 M     VACACIONES BASTANTE          BASTANTE           BASTANTE            
##  6 M     VACACIONES MUCHO             ALGO               BASTANTE            
##  7 M     VACACIONES BASTANTE          ALGO               BASTANTE            
##  8 F     VACACIONES MUCHO             ALGO               MUCHO               
##  9 M     VACACIONES MUCHO             ALGO               BASTANTE            
## 10 F     VACACIONES MUCHO             MUCHO              BASTANTE            
## # ℹ 106,021 more rows
## # ℹ 14 more variables: IMPORTANCIA_ENTORNO_AMBIENTAL <chr>,
## #   IMPORTANCIA_OFERTA_ALOJATIVA <chr>, IMPORTANCIA_PATRIMONIO_HISTORICO <chr>,
## #   IMPORTANCIA_OCIO_NOCTURNO <chr>, IMPORTANCIA_OFERTA_CULTURAL <chr>,
## #   IMPORTANCIA_GASTRONOMIA <chr>, IMPORTANCIA_VIAJE_SENCILLO <chr>,
## #   IMPORTANCIA_TRANQUILIDAD <chr>, IMPORTANCIA_PRECIO <chr>,
## #   VISITAS_TOTAL_CANARIAS <dbl>, SATISFACCION <dbl>, …
…
#cambiar los _z por NA´s
datos[datos == "_Z"] = NA

#eliminar todas las filas de NA´s ya que tenemos suficientes datos
datos = datos %>% drop_na()

datos

## # A tibble: 103,377 × 19
##    SEXO  PROPOSITO  IMPORTANCIA_CLIMA IMPORTANCIA_PLAYAS IMPORTANCIA_PAISAJES
##    <chr> <chr>      <chr>             <chr>              <chr>               
##  1 F     VACACIONES MUCHO             MUCHO              MUCHO               
##  2 M     VACACIONES MUCHO             MUCHO              MUCHO               
##  3 F     VACACIONES MUCHO             MUCHO              MUCHO               
##  4 F     VACACIONES BASTANTE          NADA               BASTANTE            
##  5 M     VACACIONES BASTANTE          BASTANTE           BASTANTE            
##  6 M     VACACIONES MUCHO             ALGO               BASTANTE            
##  7 M     VACACIONES BASTANTE          ALGO               BASTANTE            
##  8 F     VACACIONES MUCHO             ALGO               MUCHO               
##  9 M     VACACIONES MUCHO             ALGO               BASTANTE            
## 10 F     VACACIONES MUCHO             MUCHO              BASTANTE            
## # ℹ 103,367 more rows
## # ℹ 14 more variables: IMPORTANCIA_ENTORNO_AMBIENTAL <chr>,
## #   IMPORTANCIA_OFERTA_ALOJATIVA <chr>, IMPORTANCIA_PATRIMONIO_HISTORICO <chr>,
## #   IMPORTANCIA_OCIO_NOCTURNO <chr>, IMPORTANCIA_OFERTA_CULTURAL <chr>,
## #   IMPORTANCIA_GASTRONOMIA <chr>, IMPORTANCIA_VIAJE_SENCILLO <chr>,
## #   IMPORTANCIA_TRANQUILIDAD <chr>, IMPORTANCIA_PRECIO <chr>,
## #   VISITAS_TOTAL_CANARIAS <dbl>, SATISFACCION <dbl>, …
…
# 7. Coeficientes del modelo (interpretación)
############################################################

# Ajustamos en TODO el train para ver coeficientes
logit_fit_train <- fit(logit_wf, data = train)

# Coeficientes (log-odds)
logit_fit_train %>%
  extract_fit_parsnip() %>%
  tidy() %>%
  arrange(desc(estimate))  # variables que empujan hacia "alto" arriba

## # A tibble: 51 × 5
##    term                                  estimate std.error statistic  p.value
##    <chr>                                    <dbl>     <dbl>     <dbl>    <dbl>
##  1 PROPOSITO_VISITA                        0.0877    0.0884     0.993 0.321   
##  2 IMPORTANCIA_PAISAJES_NADA               0.0511    0.0169     3.02  0.00253 
##  3 IMPORTANCIA_VIAJE_SENCILLO_MUCHO        0.0505    0.0248     2.03  0.0419  
##  4 CALIFICAR_EXPERIENCIA_PEOR              0.0481    0.0124     3.88  0.000106
##  5 IMPORTANCIA_OFERTA_ALOJATIVA_BASTANTE   0.0448    0.0231     1.94  0.0523  
##  6 IMPORTANCIA_PLAYAS_BASTANTE             0.0436    0.0197     2.21  0.0268  
##  7 IMPORTANCIA_VIAJE_SENCILLO_BASTANTE     0.0402    0.0222     1.81  0.0698  
##  8 IMPORTANCIA_OFERTA_ALOJATIVA_NADA       0.0396    0.0198     2.00  0.0460  
##  9 IMPORTANCIA_PLAYAS_MUCHO                0.0388    0.0218     1.78  0.0746  
## 10 IMPORTANCIA_TRANQUILIDAD_NADA           0.0321    0.0161     1.99  0.0467  
## # ℹ 41 more rows
…
## i Fold5: preprocessor 1/1, model 4/5

## i Fold5: preprocessor 1/1, model 4/5 (predictions)

## i Fold5: preprocessor 1/1, model 5/5

## i Fold5: preprocessor 1/1, model 5/5 (predictions)

# Resultados ordenados
xgb_res %>%
  collect_metrics() %>%
  arrange(.metric, desc(mean))

## # A tibble: 25 × 12
##     mtry min_n tree_depth   learn_rate loss_reduction sample_size .metric 
##    <int> <int>      <int>        <dbl>          <dbl>       <dbl> <chr>   
##  1    10    21          4 0.1            0.0000000001       1     accuracy
##  2    20    11         11 0.00000316     0.0000000750       0.1   accuracy
##  3     5    40         15 0.000562       0.0422             0.325 accuracy
##  4     1     2          8 0.0000000001   0.0000562          0.55  accuracy
##  5    15    30          1 0.0000000178  31.6                0.775 accuracy
##  6    10    21          4 0.1            0.0000000001       1     pr_auc  
##  7    20    11         11 0.00000316     0.0000000750       0.1   pr_auc  
##  8     5    40         15 0.000562       0.0422             0.325 pr_auc  
##  9    15    30          1 0.0000000178  31.6                0.775 pr_auc  
## 10     1     2          8 0.0000000001   0.0000562          0.55  pr_auc  
## # ℹ 15 more rows
## # ℹ 5 more variables: .estimator <chr>, mean <dbl>, n <int>, std_err <dbl>,
## #   .config <chr>
…
## Warning: There were 15 warnings in `summarise()`.
## The first warning was:
## ℹ In argument: `across(everything(), ~cor(.x, datos_num$VOLVER_A_CANARIAS, use
##   = "pairwise.complete.obs"))`.
## Caused by warning in `cor()`:
## ! La desviación estándar es cero
## ℹ Run `dplyr::last_dplyr_warnings()` to see the 14 remaining warnings.

cor_volver

## # A tibble: 65 × 2
##    variable                            correlacion
##    <chr>                                     <dbl>
##  1 CALIFICAR_EXPERIENCIA_PEOR              -0.305 
##  2 CALIFICAR_EXPERIENCIA_MUCHO_MEJOR        0.206 
##  3 VISITAS_TOTAL_CANARIAS                   0.150 
##  4 IMPORTANCIA_TRANQUILIDAD_MUCHO           0.116 
##  5 IMPORTANCIA_CLIMA_MUCHO                  0.105 
##  6 IMPORTANCIA_ENTORNO_AMBIENTAL_MUCHO      0.102 
##  7 IMPORTANCIA_VIAJE_SENCILLO_MUCHO         0.0949
##  8 IMPORTANCIA_GASTRONOMIA_MUCHO            0.0933
##  9 CALIFICAR_EXPERIENCIA_MUCHO_PEOR        -0.0891
## 10 IMPORTANCIA_CLIMA_BASTANTE              -0.0890
## # ℹ 55 more rows
…
## Warning: There were 15 warnings in `summarise()`.
## The first warning was:
## ℹ In argument: `across(everything(), ~cor(.x, datos_num$SATISFACCION, use =
##   "pairwise.complete.obs"))`.
## Caused by warning in `cor()`:
## ! La desviación estándar es cero
## ℹ Run `dplyr::last_dplyr_warnings()` to see the 14 remaining warnings.

cor_satis

## # A tibble: 65 × 2
##    variable                            correlacion
##    <chr>                                     <dbl>
##  1 CALIFICAR_EXPERIENCIA_PEOR               -0.318
##  2 CALIFICAR_EXPERIENCIA_MUCHO_MEJOR         0.300
##  3 IMPORTANCIA_TRANQUILIDAD_MUCHO            0.140
##  4 IMPORTANCIA_ENTORNO_AMBIENTAL_MUCHO       0.130
##  5 IMPORTANCIA_PAISAJES_MUCHO                0.114
##  6 IMPORTANCIA_VIAJE_SENCILLO_MUCHO          0.114
##  7 CALIFICAR_EXPERIENCIA_MUCHO_PEOR         -0.111
##  8 IMPORTANCIA_GASTRONOMIA_MUCHO             0.108
##  9 IMPORTANCIA_CLIMA_MUCHO                   0.102
## 10 CALIFICAR_EXPERIENCIA_MEJOR               0.102
## # ℹ 55 more rows
